{
    "count": 9755,
    "next": "https://api.rawg.io/api/games?key=d85209c76ad340449c12bd56cf77369f&page=2&page_size=1&search=%22Grand+Theft+Auto+VI+release+date%22",
    "previous": null,
    "results": [
        {
            "slug": "grand-theft-aito-vi",
            "name": "Grand Theft Auto VI",
            "playtime": 0,
            "platforms": [
                {
                    "platform": {
                        "id": 187,
                        "name": "PlayStation 5",
                        "slug": "playstation5"
                    }
                },
                {
                    "platform": {
                        "id": 186,
                        "name": "Xbox Series S/X",
                        "slug": "xbox-series-x"
                    }
                }
            ],
            "stores": null,
            "released": "2026-05-26",
            "tba": false,
            "background_image": "https://media.rawg.io/media/games/734/7342a1cd82c8997ec620084ae4c2e7e4.jpg",
            "rating": 3.78,
            "rating_top": 5,
            "ratings": [
                {
                    "id": 5,
                    "title": "exceptional",
                    "count": 15,
                    "percent": 46.88
                },
                {
                    "id": 4,
                    "title": "recommended",
                    "count": 9,
                    "percent": 28.12
                },
                {
                    "id": 1,
                    "title": "skip",
                    "count": 7,
                    "percent": 21.88
                },
                {
                    "id": 3,
                    "title": "meh",
                    "count": 1,
                    "percent": 3.12
                }
            ],
            "ratings_count": 29,
            "reviews_text_count": 1,
            "added": 515,
            "added_by_status": {
                "yet": 74,
                "owned": 100,
                "beaten": 6,
                "toplay": 327,
                "dropped": 1,
                "playing": 7
            },
            "metacritic": null,
            "suggestions_count": 496,
            "updated": "2025-10-21T21:25:31",
            "id": 972995,
            "score": "67.24438",
            "clip": null,
            "tags": [
                {
                    "id": 31,
                    "name": "Singleplayer",
                    "slug": "singleplayer",
                    "language": "eng",
                    "games_count": 247775,
                    "image_background": "https://media.rawg.io/media/games/d82/d82990b9c67ba0d2d09d4e6fa88885a7.jpg"
                },
                {
                    "id": 40836,
                    "name": "Full controller support",
                    "slug": "full-controller-support",
                    "language": "eng",
                    "games_count": 23404,
                    "image_background": "https://media.rawg.io/media/games/20a/20aa03a10cda45239fe22d035c0ebe64.jpg"
                },
                {
                    "id": 13,
                    "name": "Atmospheric",
                    "slug": "atmospheric",
                    "language": "eng",
                    "games_count": 38906,
                    "image_background": "https://media.rawg.io/media/games/b45/b45575f34285f2c4479c9a5f719d972e.jpg"
                },
                {
                    "id": 42,
                    "name": "Great Soundtrack",
                    "slug": "great-soundtrack",
                    "language": "eng",
                    "games_count": 3440,
                    "image_background": "https://media.rawg.io/media/games/ee3/ee3e10193aafc3230ba1cae426967d10.jpg"
                },
                {
                    "id": 36,
                    "name": "Open World",
                    "slug": "open-world",
                    "language": "eng",
                    "games_count": 9080,
                    "image_background": "https://media.rawg.io/media/games/4a0/4a0a1316102366260e6f38fd2a9cfdce.jpg"
                },
                {
                    "id": 4,
                    "name": "Funny",
                    "slug": "funny",
                    "language": "eng",
                    "games_count": 28377,
                    "image_background": "https://media.rawg.io/media/games/6c5/6c55e22185876626881b76c11922b073.jpg"
                },
                {
                    "id": 37,
                    "name": "Sandbox",
                    "slug": "sandbox",
                    "language": "eng",
                    "games_count": 8334,
                    "image_background": "https://media.rawg.io/media/games/7ac/7aca7ccf0e70cd0974cb899ab9e5158e.jpg"
                },
                {
                    "id": 189,
                    "name": "Female Protagonist",
                    "slug": "female-protagonist",
                    "language": "eng",
                    "games_count": 15181,
                    "image_background": "https://media.rawg.io/media/games/3cf/3cff89996570cf29a10eb9cd967dcf73.jpg"
                },
                {
                    "id": 123,
                    "name": "Comedy",
                    "slug": "comedy",
                    "language": "eng",
                    "games_count": 14581,
                    "image_background": "https://media.rawg.io/media/games/af7/af7a831001c5c32c46e950cc883b8cb7.jpg"
                },
                {
                    "id": 34,
                    "name": "Violent",
                    "slug": "violent",
                    "language": "eng",
                    "games_count": 7697,
                    "image_background": "https://media.rawg.io/media/games/511/5118aff5091cb3efec399c808f8c598f.jpg"
                },
                {
                    "id": 150,
                    "name": "Third-Person Shooter",
                    "slug": "third-person-shooter",
                    "language": "eng",
                    "games_count": 4098,
                    "image_background": "https://media.rawg.io/media/games/e3d/e3ddc524c6292a435d01d97cc5f42ea7.jpg"
                },
                {
                    "id": 44,
                    "name": "Nudity",
                    "slug": "nudity",
                    "language": "eng",
                    "games_count": 8581,
                    "image_background": "https://media.rawg.io/media/games/67f/67f62d1f062a6164f57575e0604ee9f6.jpg"
                },
                {
                    "id": 144,
                    "name": "Crime",
                    "slug": "crime",
                    "language": "eng",
                    "games_count": 3218,
                    "image_background": "https://media.rawg.io/media/games/511/5118aff5091cb3efec399c808f8c598f.jpg"
                },
                {
                    "id": 478,
                    "name": "3rd-Person Perspective",
                    "slug": "3rd-person-perspective",
                    "language": "eng",
                    "games_count": 87,
                    "image_background": "https://media.rawg.io/media/games/909/909974d1c7863c2027241e265fe7011f.jpg"
                },
                {
                    "id": 151,
                    "name": "Modern",
                    "slug": "modern",
                    "language": "eng",
                    "games_count": 2209,
                    "image_background": "https://media.rawg.io/media/games/186/1864ee956f171b4c3d5791b82c15df2f.jpg"
                },
                {
                    "id": 782,
                    "name": "humor",
                    "slug": "humor",
                    "language": "eng",
                    "games_count": 726,
                    "image_background": "https://media.rawg.io/media/screenshots/f16/f16adab90ccfbef448e4837e30063558.jpg"
                },
                {
                    "id": 4541,
                    "name": "criminal",
                    "slug": "criminal",
                    "language": "eng",
                    "games_count": 17,
                    "image_background": "https://media.rawg.io/media/screenshots/75f/75f4ba3ea983ad1f4747877286715d84.jpg"
                },
                {
                    "id": 10381,
                    "name": "miami",
                    "slug": "miami",
                    "language": "eng",
                    "games_count": 21,
                    "image_background": "https://media.rawg.io/media/screenshots/33a/33a561d835a01e7b6f3052cb5df52992.jpg"
                }
            ],
            "esrb_rating": {
                "id": 6,
                "name": "Rating Pending",
                "slug": "rating-pending",
                "name_en": "Rating Pending",
                "name_ru": "Рейтинг обсуждается"
            },
            "user_game": null,
            "reviews_count": 32,
            "saturated_color": "0f0f0f",
            "dominant_color": "0f0f0f",
            "short_screenshots": [
                {
                    "id": -1,
                    "image": "https://media.rawg.io/media/games/734/7342a1cd82c8997ec620084ae4c2e7e4.jpg"
                },
                {
                    "id": 3978446,
                    "image": "https://media.rawg.io/media/screenshots/598/5983ffe274a237b33e0f0452364fba78.jpg"
                },
                {
                    "id": 3978447,
                    "image": "https://media.rawg.io/media/screenshots/384/384241113cb4510774289415d7d6dba1.jpg"
                },
                {
                    "id": 3978448,
                    "image": "https://media.rawg.io/media/screenshots/4c4/4c47d5e898bda3ce131a8e73db6fe505.jpg"
                },
                {
                    "id": 3978449,
                    "image": "https://media.rawg.io/media/screenshots/db2/db2c206e7896ddc846c60f5d315ecfc3.jpg"
                },
                {
                    "id": 3978450,
                    "image": "https://media.rawg.io/media/screenshots/05d/05db79dc3d0b0cc9af3f10135ad78025.jpg"
                },
                {
                    "id": 3978451,
                    "image": "https://media.rawg.io/media/screenshots/d11/d119bf3a0e7473ac0fe86648c4841859.jpg"
                }
            ],
            "parent_platforms": [
                {
                    "platform": {
                        "id": 2,
                        "name": "PlayStation",
                        "slug": "playstation"
                    }
                },
                {
                    "platform": {
                        "id": 3,
                        "name": "Xbox",
                        "slug": "xbox"
                    }
                }
            ],
            "genres": [
                {
                    "id": 4,
                    "name": "Action",
                    "slug": "action"
                }
            ]
        }
    ],
    "user_platforms": false
}